Economic Data - Lecture 7
…
``` r
# Loading packages
library(tidyverse)
library(lubridate)

# Loading and cleaning the data
*read_csv('../data/STLABOUR_10112023115611842.csv')
```
]
 
.panel2-chunk_1-auto[

```
# A tibble: 564 × 19
   LOCATION Country    SUBJECT Subject MEASURE Measure FREQUENCY Frequency TIME 
   <chr>    <chr>      <chr>   <chr>   <chr>   <chr>   <chr>     <chr>     <chr>
 1 GBR      United Ki… LRHUTT… Unempl… ST      Level,… M         Monthly   2000…
 2 GBR      United Ki… LRHUTT… Unempl… ST      Level,… M         Monthly   2000…
 3 GBR      United Ki… LRHUTT… Unempl… ST      Level,… M         Monthly   2000…
 4 GBR      United Ki… LRHUTT… Unempl… ST      Level,… M         Monthly   2000…
 5 GBR      United Ki… LRHUTT… Unempl… ST      Level,… M         Monthly   2000…
 6 GBR      United Ki… LRHUTT… Unempl… ST      Level,… M         Monthly   2000…
 7 GBR      United Ki… LRHUTT… Unempl… ST      Level,… M         Monthly   2000…
 8 GBR      United Ki… LRHUTT… Unempl… ST      Level,… M         Monthly   2000…
 9 GBR      United Ki… LRHUTT… Unempl… ST      Level,… M         Monthly   2000…
10 GBR      United Ki… LRHUTT… Unempl… ST      Level,… M         Monthly   2000…
# ℹ 554 more rows
# ℹ 10 more variables: Time <chr>, `Unit Code` <chr>, Unit <chr>,
#   `PowerCode Code` <dbl>, PowerCode <chr>, `Reference Period Code` <lgl>,
#   `Reference Period` <lgl>, Value <dbl>, `Flag Codes` <lgl>, Flags <lgl>
```
…
``` r
# Loading packages
library(tidyverse)
library(lubridate)

# Loading and cleaning the data
read_csv('../data/STLABOUR_10112023115611842.csv') %>%
* select(TIME, Measure, Value)
```
]
 
.panel2-chunk_1-auto[

```
# A tibble: 564 × 3
   TIME    Measure                        Value
   <chr>   <chr>                          <dbl>
 1 2000-01 Level, rate or quantity series   5.7
 2 2000-02 Level, rate or quantity series   5.8
 3 2000-03 Level, rate or quantity series   5.7
 4 2000-04 Level, rate or quantity series   5.5
 5 2000-05 Level, rate or quantity series   5.4
 6 2000-06 Level, rate or quantity series   5.3
 7 2000-07 Level, rate or quantity series   5.5
 8 2000-08 Level, rate or quantity series   5.5
 9 2000-09 Level, rate or quantity series   5.5
10 2000-10 Level, rate or quantity series   5.3
# ℹ 554 more rows
```
…
# Loading and cleaning the data
read_csv('../data/STLABOUR_10112023115611842.csv') %>%
  select(TIME, Measure, Value) %>%
* rename(date  = TIME)
```
]
 
.panel2-chunk_1-auto[

```
# A tibble: 564 × 3
   date    Measure                        Value
   <chr>   <chr>                          <dbl>
 1 2000-01 Level, rate or quantity series   5.7
 2 2000-02 Level, rate or quantity series   5.8
 3 2000-03 Level, rate or quantity series   5.7
 4 2000-04 Level, rate or quantity series   5.5
 5 2000-05 Level, rate or quantity series   5.4
 6 2000-06 Level, rate or quantity series   5.3
 7 2000-07 Level, rate or quantity series   5.5
 8 2000-08 Level, rate or quantity series   5.5
 9 2000-09 Level, rate or quantity series   5.5
10 2000-10 Level, rate or quantity series   5.3
# ℹ 554 more rows
```
…
# Loading and cleaning the data
read_csv('../data/STLABOUR_10112023115611842.csv') %>%
  select(TIME, Measure, Value) %>%
  rename(date  = TIME) %>%
* rename(adj   = Measure)
```
]
 
.panel2-chunk_1-auto[

```
# A tibble: 564 × 3
   date    adj                            Value
   <chr>   <chr>                          <dbl>
 1 2000-01 Level, rate or quantity series   5.7
 2 2000-02 Level, rate or quantity series   5.8
 3 2000-03 Level, rate or quantity series   5.7
 4 2000-04 Level, rate or quantity series   5.5
 5 2000-05 Level, rate or quantity series   5.4
 6 2000-06 Level, rate or quantity series   5.3
 7 2000-07 Level, rate or quantity series   5.5
 8 2000-08 Level, rate or quantity series   5.5
 9 2000-09 Level, rate or quantity series   5.5
10 2000-10 Level, rate or quantity series   5.3
# ℹ 554 more rows
```
…
# Loading and cleaning the data
read_csv('../data/STLABOUR_10112023115611842.csv') %>%
  select(TIME, Measure, Value) %>%
  rename(date  = TIME) %>%
  rename(adj   = Measure) %>%
* rename(unemp = Value)
```
]
 
.panel2-chunk_1-auto[

```
# A tibble: 564 × 3
   date    adj                            unemp
   <chr>   <chr>                          <dbl>
 1 2000-01 Level, rate or quantity series   5.7
 2 2000-02 Level, rate or quantity series   5.8
 3 2000-03 Level, rate or quantity series   5.7
 4 2000-04 Level, rate or quantity series   5.5
 5 2000-05 Level, rate or quantity series   5.4
 6 2000-06 Level, rate or quantity series   5.3
 7 2000-07 Level, rate or quantity series   5.5
 8 2000-08 Level, rate or quantity series   5.5
 9 2000-09 Level, rate or quantity series   5.5
10 2000-10 Level, rate or quantity series   5.3
# ℹ 554 more rows
```
…
# Loading and cleaning the data
read_csv('../data/STLABOUR_10112023115611842.csv') %>%
  select(TIME, Measure, Value) %>%
  rename(date  = TIME) %>%
  rename(adj   = Measure) %>%
  rename(unemp = Value) %>%
* mutate(adj  = ifelse(adj == 'Level, rate or quantity series', 'No seasonal adjustment', 'Seasonal adjustment'))
```
]
 
.panel2-chunk_1-auto[

```
# A tibble: 564 × 3
   date    adj                    unemp
   <chr>   <chr>                  <dbl>
 1 2000-01 No seasonal adjustment   5.7
 2 2000-02 No seasonal adjustment   5.8
 3 2000-03 No seasonal adjustment   5.7
 4 2000-04 No seasonal adjustment   5.5
 5 2000-05 No seasonal adjustment   5.4
 6 2000-06 No seasonal adjustment   5.3
 7 2000-07 No seasonal adjustment   5.5
 8 2000-08 No seasonal adjustment   5.5
 9 2000-09 No seasonal adjustment   5.5
10 2000-10 No seasonal adjustment   5.3
# ℹ 554 more rows
```
…
# Loading and cleaning the data
read_csv('../data/STLABOUR_10112023115611842.csv') %>%
  select(TIME, Measure, Value) %>%
  rename(date  = TIME) %>%
  rename(adj   = Measure) %>%
  rename(unemp = Value) %>%
  mutate(adj  = ifelse(adj == 'Level, rate or quantity series', 'No seasonal adjustment', 'Seasonal adjustment')) %>%
* mutate(date = paste(date, "01", sep="-"))
```
]
 
.panel2-chunk_1-auto[

```
# A tibble: 564 × 3
   date       adj                    unemp
   <chr>      <chr>                  <dbl>
 1 2000-01-01 No seasonal adjustment   5.7
 2 2000-02-01 No seasonal adjustment   5.8
 3 2000-03-01 No seasonal adjustment   5.7
 4 2000-04-01 No seasonal adjustment   5.5
 5 2000-05-01 No seasonal adjustment   5.4
 6 2000-06-01 No seasonal adjustment   5.3
 7 2000-07-01 No seasonal adjustment   5.5
 8 2000-08-01 No seasonal adjustment   5.5
 9 2000-09-01 No seasonal adjustment   5.5
10 2000-10-01 No seasonal adjustment   5.3
# ℹ 554 more rows
```
…
.panel2-chunk_1-auto[

```
# A tibble: 564 × 3
   date       adj                    unemp
   <date>     <chr>                  <dbl>
 1 2000-01-01 No seasonal adjustment   5.7
 2 2000-02-01 No seasonal adjustment   5.8
 3 2000-03-01 No seasonal adjustment   5.7
 4 2000-04-01 No seasonal adjustment   5.5
 5 2000-05-01 No seasonal adjustment   5.4
 6 2000-06-01 No seasonal adjustment   5.3
 7 2000-07-01 No seasonal adjustment   5.5
 8 2000-08-01 No seasonal adjustment   5.5
 9 2000-09-01 No seasonal adjustment   5.5
10 2000-10-01 No seasonal adjustment   5.3
# ℹ 554 more rows
```
…
.panel2-chunk_1-auto[

```
# A tibble: 564 × 5
   date       adj                    unemp month  year
   <date>     <chr>                  <dbl> <dbl> <dbl>
 1 2000-01-01 No seasonal adjustment   5.7     1  2000
 2 2000-02-01 No seasonal adjustment   5.8     2  2000
 3 2000-03-01 No seasonal adjustment   5.7     3  2000
 4 2000-04-01 No seasonal adjustment   5.5     4  2000
 5 2000-05-01 No seasonal adjustment   5.4     5  2000
 6 2000-06-01 No seasonal adjustment   5.3     6  2000
 7 2000-07-01 No seasonal adjustment   5.5     7  2000
 8 2000-08-01 No seasonal adjustment   5.5     8  2000
 9 2000-09-01 No seasonal adjustment   5.5     9  2000
10 2000-10-01 No seasonal adjustment   5.3    10  2000
# ℹ 554 more rows
```
…
.panel2-chunk_1-auto[

```
# A tibble: 282 × 5
   date       adj                    unemp month  year
   <date>     <chr>                  <dbl> <dbl> <dbl>
 1 2000-01-01 No seasonal adjustment   5.7     1  2000
 2 2000-02-01 No seasonal adjustment   5.8     2  2000
 3 2000-03-01 No seasonal adjustment   5.7     3  2000
 4 2000-04-01 No seasonal adjustment   5.5     4  2000
 5 2000-05-01 No seasonal adjustment   5.4     5  2000
 6 2000-06-01 No seasonal adjustment   5.3     6  2000
 7 2000-07-01 No seasonal adjustment   5.5     7  2000
 8 2000-08-01 No seasonal adjustment   5.5     8  2000
 9 2000-09-01 No seasonal adjustment   5.5     9  2000
10 2000-10-01 No seasonal adjustment   5.3    10  2000
# ℹ 272 more rows
```
…
.panel2-chunk_1-auto[

```
# A tibble: 282 × 6
   date       adj                    unemp month  year trend
   <date>     <chr>                  <dbl> <dbl> <dbl> <dbl>
 1 2000-01-01 No seasonal adjustment   5.7     1  2000 NA   
 2 2000-02-01 No seasonal adjustment   5.8     2  2000 NA   
 3 2000-03-01 No seasonal adjustment   5.7     3  2000 NA   
 4 2000-04-01 No seasonal adjustment   5.5     4  2000 NA   
 5 2000-05-01 No seasonal adjustment   5.4     5  2000  5.54
 6 2000-06-01 No seasonal adjustment   5.3     6  2000  5.5 
 7 2000-07-01 No seasonal adjustment   5.5     7  2000  5.42
 8 2000-08-01 No seasonal adjustment   5.5     8  2000  5.34
 9 2000-09-01 No seasonal adjustment   5.5     9  2000  5.3 
10 2000-10-01 No seasonal adjustment   5.3    10  2000  5.27
# ℹ 272 more rows
```
…
.panel2-chunk_1-auto[

```
# A tibble: 282 × 6
   date       adj                    unemp month  year trend
   <date>     <chr>                  <dbl> <dbl> <dbl> <dbl>
 1 2000-01-01 No seasonal adjustment   5.7     1  2000 NA   
 2 2000-02-01 No seasonal adjustment   5.8     2  2000 NA   
 3 2000-03-01 No seasonal adjustment   5.7     3  2000 NA   
 4 2000-04-01 No seasonal adjustment   5.5     4  2000 NA   
 5 2000-05-01 No seasonal adjustment   5.4     5  2000  5.54
 6 2000-06-01 No seasonal adjustment   5.3     6  2000  5.5 
 7 2000-07-01 No seasonal adjustment   5.5     7  2000  5.42
 8 2000-08-01 No seasonal adjustment   5.5     8  2000  5.34
 9 2000-09-01 No seasonal adjustment   5.5     9  2000  5.3 
10 2000-10-01 No seasonal adjustment   5.3    10  2000  5.27
# ℹ 272 more rows
```
…
---

count: false

.panel1-chunk_3-auto[

``` r
*df
```
]
 
.panel2-chunk_3-auto[

```
# A tibble: 74 × 8
   month unemp_month date       adj                unemp  year trend unemp_shock
   <dbl>       <dbl> <date>     <chr>              <dbl> <dbl> <dbl>       <dbl>
 1     1     -0.0222 2014-01-01 No seasonal adjus…   6.8  2014  6.81      0.0111
 2     1     -0.0222 2015-01-01 No seasonal adjus…   5.5  2015  5.61     -0.0889
 3     1     -0.0222 2016-01-01 No seasonal adjus…   5    2016  5         0.0222
 4     1     -0.0222 2017-01-01 No seasonal adjus…   4.6  2017  4.59      0.0333
 5     1     -0.0222 2018-01-01 No seasonal adjus…   4.1  2018  4.17     -0.0444
 6     1     -0.0222 2019-01-01 No seasonal adjus…   3.9  2019  3.88      0.0444
 7     1     -0.0222 2020-01-01 No seasonal adjus…   3.9  2020  3.9       0.0222
 8     2      0.0507 2014-02-01 No seasonal adjus…   6.7  2014  6.67     -0.0174
 9     2      0.0507 2015-02-01 No seasonal adjus…   5.5  2015  5.54     -0.0952
10     2      0.0507 2016-02-01 No seasonal adjus…   5.1  2016  4.96      0.0937
# ℹ 64 more rows
```
…
---
count: false

.panel1-chunk_3-auto[

``` r
df %>%
* mutate(month = month(date), year = year(date))
```
]
 
.panel2-chunk_3-auto[

```
# A tibble: 74 × 8
   month unemp_month date       adj                unemp  year trend unemp_shock
   <dbl>       <dbl> <date>     <chr>              <dbl> <dbl> <dbl>       <dbl>
 1     1     -0.0222 2014-01-01 No seasonal adjus…   6.8  2014  6.81      0.0111
 2     1     -0.0222 2015-01-01 No seasonal adjus…   5.5  2015  5.61     -0.0889
 3     1     -0.0222 2016-01-01 No seasonal adjus…   5    2016  5         0.0222
 4     1     -0.0222 2017-01-01 No seasonal adjus…   4.6  2017  4.59      0.0333
 5     1     -0.0222 2018-01-01 No seasonal adjus…   4.1  2018  4.17     -0.0444
 6     1     -0.0222 2019-01-01 No seasonal adjus…   3.9  2019  3.88      0.0444
 7     1     -0.0222 2020-01-01 No seasonal adjus…   3.9  2020  3.9       0.0222
 8     2      0.0507 2014-02-01 No seasonal adjus…   6.7  2014  6.67     -0.0174
 9     2      0.0507 2015-02-01 No seasonal adjus…   5.5  2015  5.54     -0.0952
10     2      0.0507 2016-02-01 No seasonal adjus…   5.1  2016  4.96      0.0937
# ℹ 64 more rows
```
…
.panel1-chunk_3-auto[

``` r
df %>%
  mutate(month = month(date), year = year(date)) %>%
* group_by(month)
```
]
 
.panel2-chunk_3-auto[

```
# A tibble: 74 × 8
# Groups:   month [12]
   month unemp_month date       adj                unemp  year trend unemp_shock
   <dbl>       <dbl> <date>     <chr>              <dbl> <dbl> <dbl>       <dbl>
 1     1     -0.0222 2014-01-01 No seasonal adjus…   6.8  2014  6.81      0.0111
 2     1     -0.0222 2015-01-01 No seasonal adjus…   5.5  2015  5.61     -0.0889
 3     1     -0.0222 2016-01-01 No seasonal adjus…   5    2016  5         0.0222
 4     1     -0.0222 2017-01-01 No seasonal adjus…   4.6  2017  4.59      0.0333
 5     1     -0.0222 2018-01-01 No seasonal adjus…   4.1  2018  4.17     -0.0444
 6     1     -0.0222 2019-01-01 No seasonal adjus…   3.9  2019  3.88      0.0444
 7     1     -0.0222 2020-01-01 No seasonal adjus…   3.9  2020  3.9       0.0222
 8     2      0.0507 2014-02-01 No seasonal adjus…   6.7  2014  6.67     -0.0174
 9     2      0.0507 2015-02-01 No seasonal adjus…   5.5  2015  5.54     -0.0952
10     2      0.0507 2016-02-01 No seasonal adjus…   5.1  2016  4.96      0.0937
# ℹ 64 more rows
```
…
.panel1-chunk_3-auto[

``` r
df %>%
  mutate(month = month(date), year = year(date)) %>%
  group_by(month) %>%
  summarise(unemp_month = mean(unemp - trend, na.rm = T)) %>%
* full_join(df, by = 'month')
```
]
 
.panel2-chunk_3-auto[

```
# A tibble: 74 × 9
   month unemp_month.x unemp_month.y date       adj            unemp  year trend
   <dbl>         <dbl>         <dbl> <date>     <chr>          <dbl> <dbl> <dbl>
 1     1       -0.0222       -0.0222 2014-01-01 No seasonal a…   6.8  2014  6.81
 2     1       -0.0222       -0.0222 2015-01-01 No seasonal a…   5.5  2015  5.61
 3     1       -0.0222       -0.0222 2016-01-01 No seasonal a…   5    2016  5   
 4     1       -0.0222       -0.0222 2017-01-01 No seasonal a…   4.6  2017  4.59
 5     1       -0.0222       -0.0222 2018-01-01 No seasonal a…   4.1  2018  4.17
 6     1       -0.0222       -0.0222 2019-01-01 No seasonal a…   3.9  2019  3.88
 7     1       -0.0222       -0.0222 2020-01-01 No seasonal a…   3.9  2020  3.9 
 8     2        0.0444        0.0507 2014-02-01 No seasonal a…   6.7  2014  6.67
 9     2        0.0444        0.0507 2015-02-01 No seasonal a…   5.5  2015  5.54
10     2        0.0444        0.0507 2016-02-01 No seasonal a…   5.1  2016  4.96
# ℹ 64 more rows
# ℹ 1 more variable: unemp_shock <dbl>
```
…
.panel1-chunk_3-auto[

``` r
df %>%
  mutate(month = month(date), year = year(date)) %>%
  group_by(month) %>%
  summarise(unemp_month = mean(unemp - trend, na.rm = T)) %>%
  full_join(df, by = 'month')
```
]
 
.panel2-chunk_3-auto[

```
# A tibble: 74 × 9
   month unemp_month.x unemp_month.y date       adj            unemp  year trend
   <dbl>         <dbl>         <dbl> <date>     <chr>          <dbl> <dbl> <dbl>
 1     1       -0.0222       -0.0222 2014-01-01 No seasonal a…   6.8  2014  6.81
 2     1       -0.0222       -0.0222 2015-01-01 No seasonal a…   5.5  2015  5.61
 3     1       -0.0222       -0.0222 2016-01-01 No seasonal a…   5    2016  5   
 4     1       -0.0222       -0.0222 2017-01-01 No seasonal a…   4.6  2017  4.59
 5     1       -0.0222       -0.0222 2018-01-01 No seasonal a…   4.1  2018  4.17
 6     1       -0.0222       -0.0222 2019-01-01 No seasonal a…   3.9  2019  3.88
 7     1       -0.0222       -0.0222 2020-01-01 No seasonal a…   3.9  2020  3.9 
 8     2        0.0444        0.0507 2014-02-01 No seasonal a…   6.7  2014  6.67
 9     2        0.0444        0.0507 2015-02-01 No seasonal a…   5.5  2015  5.54
10     2        0.0444        0.0507 2016-02-01 No seasonal a…   5.1  2016  4.96
# ℹ 64 more rows
# ℹ 1 more variable: unemp_shock <dbl>
```
…
---

count: false

.panel1-chunk_5-auto[

``` r
*df
```
]
 
.panel2-chunk_5-auto[

```
# A tibble: 74 × 8
   month unemp_month date       adj                unemp  year trend unemp_shock
   <dbl>       <dbl> <date>     <chr>              <dbl> <dbl> <dbl>       <dbl>
 1     1     -0.0222 2014-01-01 No seasonal adjus…   6.8  2014  6.81      0.0111
 2     1     -0.0222 2015-01-01 No seasonal adjus…   5.5  2015  5.61     -0.0889
 3     1     -0.0222 2016-01-01 No seasonal adjus…   5    2016  5         0.0222
 4     1     -0.0222 2017-01-01 No seasonal adjus…   4.6  2017  4.59      0.0333
 5     1     -0.0222 2018-01-01 No seasonal adjus…   4.1  2018  4.17     -0.0444
 6     1     -0.0222 2019-01-01 No seasonal adjus…   3.9  2019  3.88      0.0444
 7     1     -0.0222 2020-01-01 No seasonal adjus…   3.9  2020  3.9       0.0222
 8     2      0.0507 2014-02-01 No seasonal adjus…   6.7  2014  6.67     -0.0174
 9     2      0.0507 2015-02-01 No seasonal adjus…   5.5  2015  5.54     -0.0952
10     2      0.0507 2016-02-01 No seasonal adjus…   5.1  2016  4.96      0.0937
# ℹ 64 more rows
```
…
---
count: false

.panel1-chunk_5-auto[

``` r
df %>%
* mutate(unemp_shock = unemp - (trend + unemp_month))
```
]
 
.panel2-chunk_5-auto[

```
# A tibble: 74 × 8
   month unemp_month date       adj                unemp  year trend unemp_shock
   <dbl>       <dbl> <date>     <chr>              <dbl> <dbl> <dbl>       <dbl>
 1     1     -0.0222 2014-01-01 No seasonal adjus…   6.8  2014  6.81      0.0111
 2     1     -0.0222 2015-01-01 No seasonal adjus…   5.5  2015  5.61     -0.0889
 3     1     -0.0222 2016-01-01 No seasonal adjus…   5    2016  5         0.0222
 4     1     -0.0222 2017-01-01 No seasonal adjus…   4.6  2017  4.59      0.0333
 5     1     -0.0222 2018-01-01 No seasonal adjus…   4.1  2018  4.17     -0.0444
 6     1     -0.0222 2019-01-01 No seasonal adjus…   3.9  2019  3.88      0.0444
 7     1     -0.0222 2020-01-01 No seasonal adjus…   3.9  2020  3.9       0.0222
 8     2      0.0507 2014-02-01 No seasonal adjus…   6.7  2014  6.67     -0.0174
 9     2      0.0507 2015-02-01 No seasonal adjus…   5.5  2015  5.54     -0.0952
10     2      0.0507 2016-02-01 No seasonal adjus…   5.1  2016  4.96      0.0937
# ℹ 64 more rows
```
…
