Economic Data - Lecture 9
…
---
count: false

.panel1-chunk_11-auto[

``` r
*read_csv("../data/IUMABEDR  Bank of England  Database.csv",
*                        col_names = FALSE, skip = 1)
```
]
 
.panel2-chunk_11-auto[

```
# A tibble: 346 × 2
   X1           X2
   <chr>     <dbl>
 1 31 Oct 23  5.25
 2 30 Sep 23  5.25
 3 31 Aug 23  5.23
 4 31 Jul 23  5   
 5 30 Jun 23  4.66
 6 31 May 23  4.42
 7 30 Apr 23  4.25
 8 31 Mar 23  4.08
 9 28 Feb 23  3.98
10 31 Jan 23  3.5 
# ℹ 336 more rows
```
…
.panel1-chunk_11-auto[

``` r
read_csv("../data/IUMABEDR  Bank of England  Database.csv",
                         col_names = FALSE, skip = 1) %>%
* rename(rate = X2,
*        date = X1)
```
]
 
.panel2-chunk_11-auto[

```
# A tibble: 346 × 2
   date       rate
   <chr>     <dbl>
 1 31 Oct 23  5.25
 2 30 Sep 23  5.25
 3 31 Aug 23  5.23
 4 31 Jul 23  5   
 5 30 Jun 23  4.66
 6 31 May 23  4.42
 7 30 Apr 23  4.25
 8 31 Mar 23  4.08
 9 28 Feb 23  3.98
10 31 Jan 23  3.5 
# ℹ 336 more rows
```
…
.panel1-chunk_11-auto[

``` r
read_csv("../data/IUMABEDR  Bank of England  Database.csv",
                         col_names = FALSE, skip = 1) %>%
  rename(rate = X2,
         date = X1) %>%
* mutate(date = as.Date(date, format = "%d %b %y"))
```
]
 
.panel2-chunk_11-auto[

```
# A tibble: 346 × 2
   date        rate
   <date>     <dbl>
 1 2023-10-31  5.25
 2 2023-09-30  5.25
 3 2023-08-31  5.23
 4 2023-07-31  5   
 5 2023-06-30  4.66
 6 2023-05-31  4.42
 7 2023-04-30  4.25
 8 2023-03-31  4.08
 9 2023-02-28  3.98
10 2023-01-31  3.5 
# ℹ 336 more rows
```
…
``` r
read_csv("../data/IUMABEDR  Bank of England  Database.csv",
                         col_names = FALSE, skip = 1) %>%
  rename(rate = X2,
         date = X1) %>%
  mutate(date = as.Date(date, format = "%d %b %y")) %>%
* mutate(type = 'Policy rate')
```
]
 
.panel2-chunk_11-auto[

```
# A tibble: 346 × 3
   date        rate type       
   <date>     <dbl> <chr>      
 1 2023-10-31  5.25 Policy rate
 2 2023-09-30  5.25 Policy rate
 3 2023-08-31  5.23 Policy rate
 4 2023-07-31  5    Policy rate
 5 2023-06-30  4.66 Policy rate
 6 2023-05-31  4.42 Policy rate
 7 2023-04-30  4.25 Policy rate
 8 2023-03-31  4.08 Policy rate
 9 2023-02-28  3.98 Policy rate
10 2023-01-31  3.5  Policy rate
# ℹ 336 more rows
```
…
*read_csv("../data/IUMTLMV  Bank of England  Database.csv",
*                       col_names = FALSE, skip = 1)
```
]
 
.panel2-chunk_11-auto[

```
# A tibble: 346 × 3
   date        rate type       
   <date>     <dbl> <chr>      
 1 2023-10-31  5.25 Policy rate
 2 2023-09-30  5.25 Policy rate
 3 2023-08-31  5.23 Policy rate
 4 2023-07-31  5    Policy rate
 5 2023-06-30  4.66 Policy rate
 6 2023-05-31  4.42 Policy rate
 7 2023-04-30  4.25 Policy rate
 8 2023-03-31  4.08 Policy rate
 9 2023-02-28  3.98 Policy rate
10 2023-01-31  3.5  Policy rate
# ℹ 336 more rows
```

```
# A tibble: 346 × 2
   X1           X2
   <chr>     <dbl>
 1 31 Oct 23  8.01
 2 30 Sep 23  7.93
 3 31 Aug 23  7.85
 4 31 Jul 23  7.6 
 5 30 Jun 23  7.47
 6 31 May 23  7.38
 7 30 Apr 23  7.3 
 8 31 Mar 23  7.16
 9 28 Feb 23  6.97
10 31 Jan 23  6.61
# ℹ 336 more rows
```
…
read_csv("../data/IUMTLMV  Bank of England  Database.csv",
                        col_names = FALSE, skip = 1) %>%
* rename(rate = X2,
*        date = X1)
```
]
 
.panel2-chunk_11-auto[

```
# A tibble: 346 × 3
   date        rate type       
   <date>     <dbl> <chr>      
 1 2023-10-31  5.25 Policy rate
 2 2023-09-30  5.25 Policy rate
 3 2023-08-31  5.23 Policy rate
 4 2023-07-31  5    Policy rate
 5 2023-06-30  4.66 Policy rate
 6 2023-05-31  4.42 Policy rate
 7 2023-04-30  4.25 Policy rate
 8 2023-03-31  4.08 Policy rate
 9 2023-02-28  3.98 Policy rate
10 2023-01-31  3.5  Policy rate
# ℹ 336 more rows
```

```
# A tibble: 346 × 2
   date       rate
   <chr>     <dbl>
 1 31 Oct 23  8.01
 2 30 Sep 23  7.93
 3 31 Aug 23  7.85
 4 31 Jul 23  7.6 
 5 30 Jun 23  7.47
 6 31 May 23  7.38
 7 30 Apr 23  7.3 
 8 31 Mar 23  7.16
 9 28 Feb 23  6.97
10 31 Jan 23  6.61
# ℹ 336 more rows
```
…
read_csv("../data/IUMTLMV  Bank of England  Database.csv",
                        col_names = FALSE, skip = 1) %>%
  rename(rate = X2,
         date = X1) %>%
* mutate(date = as.Date(date, format = "%d %b %y"))
```
]
 
.panel2-chunk_11-auto[

```
# A tibble: 346 × 3
   date        rate type       
   <date>     <dbl> <chr>      
 1 2023-10-31  5.25 Policy rate
 2 2023-09-30  5.25 Policy rate
 3 2023-08-31  5.23 Policy rate
 4 2023-07-31  5    Policy rate
 5 2023-06-30  4.66 Policy rate
 6 2023-05-31  4.42 Policy rate
 7 2023-04-30  4.25 Policy rate
 8 2023-03-31  4.08 Policy rate
 9 2023-02-28  3.98 Policy rate
10 2023-01-31  3.5  Policy rate
# ℹ 336 more rows
```

```
# A tibble: 346 × 2
   date        rate
   <date>     <dbl>
 1 2023-10-31  8.01
 2 2023-09-30  7.93
 3 2023-08-31  7.85
 4 2023-07-31  7.6 
 5 2023-06-30  7.47
 6 2023-05-31  7.38
 7 2023-04-30  7.3 
 8 2023-03-31  7.16
 9 2023-02-28  6.97
10 2023-01-31  6.61
# ℹ 336 more rows
```
…
read_csv("../data/IUMTLMV  Bank of England  Database.csv",
                        col_names = FALSE, skip = 1) %>%
  rename(rate = X2,
         date = X1) %>%
  mutate(date = as.Date(date, format = "%d %b %y")) %>%
* mutate(type = 'Av. mortgage rate')
```
]
 
.panel2-chunk_11-auto[

```
# A tibble: 346 × 3
   date        rate type       
   <date>     <dbl> <chr>      
 1 2023-10-31  5.25 Policy rate
 2 2023-09-30  5.25 Policy rate
 3 2023-08-31  5.23 Policy rate
 4 2023-07-31  5    Policy rate
 5 2023-06-30  4.66 Policy rate
 6 2023-05-31  4.42 Policy rate
 7 2023-04-30  4.25 Policy rate
 8 2023-03-31  4.08 Policy rate
 9 2023-02-28  3.98 Policy rate
10 2023-01-31  3.5  Policy rate
# ℹ 336 more rows
```

```
# A tibble: 346 × 3
   date        rate type             
   <date>     <dbl> <chr>            
 1 2023-10-31  8.01 Av. mortgage rate
 2 2023-09-30  7.93 Av. mortgage rate
 3 2023-08-31  7.85 Av. mortgage rate
 4 2023-07-31  7.6  Av. mortgage rate
 5 2023-06-30  7.47 Av. mortgage rate
 6 2023-05-31  7.38 Av. mortgage rate
 7 2023-04-30  7.3  Av. mortgage rate
 8 2023-03-31  7.16 Av. mortgage rate
 9 2023-02-28  6.97 Av. mortgage rate
10 2023-01-31  6.61 Av. mortgage rate
# ℹ 336 more rows
```
…
*overdraft_rate <- read_csv("../data/IUMODTL  Bank of England  Database.csv",
*                         col_names = FALSE, skip = 1)
```
]
 
.panel2-chunk_11-auto[

```
# A tibble: 346 × 3
   date        rate type       
   <date>     <dbl> <chr>      
 1 2023-10-31  5.25 Policy rate
 2 2023-09-30  5.25 Policy rate
 3 2023-08-31  5.23 Policy rate
 4 2023-07-31  5    Policy rate
 5 2023-06-30  4.66 Policy rate
 6 2023-05-31  4.42 Policy rate
 7 2023-04-30  4.25 Policy rate
 8 2023-03-31  4.08 Policy rate
 9 2023-02-28  3.98 Policy rate
10 2023-01-31  3.5  Policy rate
# ℹ 336 more rows
```

```
# A tibble: 346 × 3
   date        rate type             
   <date>     <dbl> <chr>            
 1 2023-10-31  8.01 Av. mortgage rate
 2 2023-09-30  7.93 Av. mortgage rate
 3 2023-08-31  7.85 Av. mortgage rate
 4 2023-07-31  7.6  Av. mortgage rate
 5 2023-06-30  7.47 Av. mortgage rate
 6 2023-05-31  7.38 Av. mortgage rate
 7 2023-04-30  7.3  Av. mortgage rate
 8 2023-03-31  7.16 Av. mortgage rate
 9 2023-02-28  6.97 Av. mortgage rate
10 2023-01-31  6.61 Av. mortgage rate
# ℹ 336 more rows
```
…
overdraft_rate <- read_csv("../data/IUMODTL  Bank of England  Database.csv",
                          col_names = FALSE, skip = 1) %>%
* rename(rate = X2,
*        date = X1)
```
]
 
.panel2-chunk_11-auto[

```
# A tibble: 346 × 3
   date        rate type       
   <date>     <dbl> <chr>      
 1 2023-10-31  5.25 Policy rate
 2 2023-09-30  5.25 Policy rate
 3 2023-08-31  5.23 Policy rate
 4 2023-07-31  5    Policy rate
 5 2023-06-30  4.66 Policy rate
 6 2023-05-31  4.42 Policy rate
 7 2023-04-30  4.25 Policy rate
 8 2023-03-31  4.08 Policy rate
 9 2023-02-28  3.98 Policy rate
10 2023-01-31  3.5  Policy rate
# ℹ 336 more rows
```

```
# A tibble: 346 × 3
   date        rate type             
   <date>     <dbl> <chr>            
 1 2023-10-31  8.01 Av. mortgage rate
 2 2023-09-30  7.93 Av. mortgage rate
 3 2023-08-31  7.85 Av. mortgage rate
 4 2023-07-31  7.6  Av. mortgage rate
 5 2023-06-30  7.47 Av. mortgage rate
 6 2023-05-31  7.38 Av. mortgage rate
 7 2023-04-30  7.3  Av. mortgage rate
 8 2023-03-31  7.16 Av. mortgage rate
 9 2023-02-28  6.97 Av. mortgage rate
10 2023-01-31  6.61 Av. mortgage rate
# ℹ 336 more rows
```
…
overdraft_rate <- read_csv("../data/IUMODTL  Bank of England  Database.csv",
                          col_names = FALSE, skip = 1) %>%
  rename(rate = X2,
         date = X1) %>%
* mutate(date = as.Date(date, format = "%d %b %y"))
```
]
 
.panel2-chunk_11-auto[

```
# A tibble: 346 × 3
   date        rate type       
   <date>     <dbl> <chr>      
 1 2023-10-31  5.25 Policy rate
 2 2023-09-30  5.25 Policy rate
 3 2023-08-31  5.23 Policy rate
 4 2023-07-31  5    Policy rate
 5 2023-06-30  4.66 Policy rate
 6 2023-05-31  4.42 Policy rate
 7 2023-04-30  4.25 Policy rate
 8 2023-03-31  4.08 Policy rate
 9 2023-02-28  3.98 Policy rate
10 2023-01-31  3.5  Policy rate
# ℹ 336 more rows
```

```
# A tibble: 346 × 3
   date        rate type             
   <date>     <dbl> <chr>            
 1 2023-10-31  8.01 Av. mortgage rate
 2 2023-09-30  7.93 Av. mortgage rate
 3 2023-08-31  7.85 Av. mortgage rate
 4 2023-07-31  7.6  Av. mortgage rate
 5 2023-06-30  7.47 Av. mortgage rate
 6 2023-05-31  7.38 Av. mortgage rate
 7 2023-04-30  7.3  Av. mortgage rate
 8 2023-03-31  7.16 Av. mortgage rate
 9 2023-02-28  6.97 Av. mortgage rate
10 2023-01-31  6.61 Av. mortgage rate
# ℹ 336 more rows
```
…
overdraft_rate <- read_csv("../data/IUMODTL  Bank of England  Database.csv",
                          col_names = FALSE, skip = 1) %>%
  rename(rate = X2,
         date = X1) %>%
  mutate(date = as.Date(date, format = "%d %b %y")) %>%
* mutate(type = 'Av. overdraft rate')
```
]
 
.panel2-chunk_11-auto[

```
# A tibble: 346 × 3
   date        rate type       
   <date>     <dbl> <chr>      
 1 2023-10-31  5.25 Policy rate
 2 2023-09-30  5.25 Policy rate
 3 2023-08-31  5.23 Policy rate
 4 2023-07-31  5    Policy rate
 5 2023-06-30  4.66 Policy rate
 6 2023-05-31  4.42 Policy rate
 7 2023-04-30  4.25 Policy rate
 8 2023-03-31  4.08 Policy rate
 9 2023-02-28  3.98 Policy rate
10 2023-01-31  3.5  Policy rate
# ℹ 336 more rows
```

```
# A tibble: 346 × 3
   date        rate type             
   <date>     <dbl> <chr>            
 1 2023-10-31  8.01 Av. mortgage rate
 2 2023-09-30  7.93 Av. mortgage rate
 3 2023-08-31  7.85 Av. mortgage rate
 4 2023-07-31  7.6  Av. mortgage rate
 5 2023-06-30  7.47 Av. mortgage rate
 6 2023-05-31  7.38 Av. mortgage rate
 7 2023-04-30  7.3  Av. mortgage rate
 8 2023-03-31  7.16 Av. mortgage rate
 9 2023-02-28  6.97 Av. mortgage rate
10 2023-01-31  6.61 Av. mortgage rate
# ℹ 336 more rows
```
…
overdraft_rate <- read_csv("../data/IUMODTL  Bank of England  Database.csv",
                          col_names = FALSE, skip = 1) %>%
  rename(rate = X2,
         date = X1) %>%
  mutate(date = as.Date(date, format = "%d %b %y")) %>%
  mutate(type = 'Av. overdraft rate')

*rates <- rbind(policy_rate, mortgage_rate, overdraft_rate)
```
]
 
.panel2-chunk_11-auto[

```
# A tibble: 346 × 3
   date        rate type       
   <date>     <dbl> <chr>      
 1 2023-10-31  5.25 Policy rate
 2 2023-09-30  5.25 Policy rate
 3 2023-08-31  5.23 Policy rate
 4 2023-07-31  5    Policy rate
 5 2023-06-30  4.66 Policy rate
 6 2023-05-31  4.42 Policy rate
 7 2023-04-30  4.25 Policy rate
 8 2023-03-31  4.08 Policy rate
 9 2023-02-28  3.98 Policy rate
10 2023-01-31  3.5  Policy rate
# ℹ 336 more rows
```

```
# A tibble: 346 × 3
   date        rate type             
   <date>     <dbl> <chr>            
 1 2023-10-31  8.01 Av. mortgage rate
 2 2023-09-30  7.93 Av. mortgage rate
 3 2023-08-31  7.85 Av. mortgage rate
 4 2023-07-31  7.6  Av. mortgage rate
 5 2023-06-30  7.47 Av. mortgage rate
 6 2023-05-31  7.38 Av. mortgage rate
 7 2023-04-30  7.3  Av. mortgage rate
 8 2023-03-31  7.16 Av. mortgage rate
 9 2023-02-28  6.97 Av. mortgage rate
10 2023-01-31  6.61 Av. mortgage rate
# ℹ 336 more rows
```
…
---
count: false

.panel1-chunk_21-auto[

``` r
*read_table2("../data/Exchange_Rate_Report.tsv",
*                                   skip = 2)
```
]
 
.panel2-chunk_21-auto[

```
# A tibble: 7,458 × 4
   Date         U.K. `pound(GBP)` X4   
   <chr>       <dbl> <chr>        <lgl>
 1 04-Jan-1994  1.48 "\xa0"       NA   
 2 05-Jan-1994  1.49 "\xa0"       NA   
 3 06-Jan-1994  1.48 "\xa0"       NA   
 4 07-Jan-1994  1.48 "\xa0"       NA   
 5 10-Jan-1994  1.49 "\xa0"       NA   
 6 11-Jan-1994  1.49 "\xa0"       NA   
 7 12-Jan-1994  1.50 "\xa0"       NA   
 8 13-Jan-1994  1.50 "\xa0"       NA   
 9 14-Jan-1994  1.49 "\xa0"       NA   
10 17-Jan-1994  1.49 "\xa0"       NA   
# ℹ 7,448 more rows
```
…
.panel1-chunk_21-auto[

``` r
read_table2("../data/Exchange_Rate_Report.tsv",
                                    skip = 2) %>%
* rename(rate = `U.K.`)
```
]
 
.panel2-chunk_21-auto[

```
# A tibble: 7,458 × 4
   Date         rate `pound(GBP)` X4   
   <chr>       <dbl> <chr>        <lgl>
 1 04-Jan-1994  1.48 "\xa0"       NA   
 2 05-Jan-1994  1.49 "\xa0"       NA   
 3 06-Jan-1994  1.48 "\xa0"       NA   
 4 07-Jan-1994  1.48 "\xa0"       NA   
 5 10-Jan-1994  1.49 "\xa0"       NA   
 6 11-Jan-1994  1.49 "\xa0"       NA   
 7 12-Jan-1994  1.50 "\xa0"       NA   
 8 13-Jan-1994  1.50 "\xa0"       NA   
 9 14-Jan-1994  1.49 "\xa0"       NA   
10 17-Jan-1994  1.49 "\xa0"       NA   
# ℹ 7,448 more rows
```
…
.panel1-chunk_21-auto[

``` r
read_table2("../data/Exchange_Rate_Report.tsv",
                                    skip = 2) %>%
  rename(rate = `U.K.`) %>%
* mutate(date = as.Date(Date, format = "%d-%b-%Y"))
```
]
 
.panel2-chunk_21-auto[

```
# A tibble: 7,458 × 5
   Date         rate `pound(GBP)` X4    date      
   <chr>       <dbl> <chr>        <lgl> <date>    
 1 04-Jan-1994  1.48 "\xa0"       NA    1994-01-04
 2 05-Jan-1994  1.49 "\xa0"       NA    1994-01-05
 3 06-Jan-1994  1.48 "\xa0"       NA    1994-01-06
 4 07-Jan-1994  1.48 "\xa0"       NA    1994-01-07
 5 10-Jan-1994  1.49 "\xa0"       NA    1994-01-10
 6 11-Jan-1994  1.49 "\xa0"       NA    1994-01-11
 7 12-Jan-1994  1.50 "\xa0"       NA    1994-01-12
 8 13-Jan-1994  1.50 "\xa0"       NA    1994-01-13
 9 14-Jan-1994  1.49 "\xa0"       NA    1994-01-14
10 17-Jan-1994  1.49 "\xa0"       NA    1994-01-17
# ℹ 7,448 more rows
```
…
.panel1-chunk_21-auto[

``` r
read_table2("../data/Exchange_Rate_Report.tsv",
                                    skip = 2) %>%
  rename(rate = `U.K.`) %>%
  mutate(date = as.Date(Date, format = "%d-%b-%Y")) %>%
* select(date, rate)
```
]
 
.panel2-chunk_21-auto[

```
# A tibble: 7,458 × 2
   date        rate
   <date>     <dbl>
 1 1994-01-04  1.48
 2 1994-01-05  1.49
 3 1994-01-06  1.48
 4 1994-01-07  1.48
 5 1994-01-10  1.49
 6 1994-01-11  1.49
 7 1994-01-12  1.50
 8 1994-01-13  1.50
 9 1994-01-14  1.49
10 1994-01-17  1.49
# ℹ 7,448 more rows
```
…
``` r
read_table2("../data/Exchange_Rate_Report.tsv",
                                    skip = 2) %>%
  rename(rate = `U.K.`) %>%
  mutate(date = as.Date(Date, format = "%d-%b-%Y")) %>%
  select(date, rate) %>%
* mutate(g = (rate - lag(rate, n = 1))/lag(rate, n = 1))
```
]
 
.panel2-chunk_21-auto[

```
# A tibble: 7,458 × 3
   date        rate         g
   <date>     <dbl>     <dbl>
 1 1994-01-04  1.48 NA       
 2 1994-01-05  1.49  0.00283 
 3 1994-01-06  1.48 -0.00128 
 4 1994-01-07  1.48 -0.000472
 5 1994-01-10  1.49  0.00600 
 6 1994-01-11  1.49 -0.00201 
 7 1994-01-12  1.50  0.00504 
 8 1994-01-13  1.50  0.00114 
 9 1994-01-14  1.49 -0.00447 
10 1994-01-17  1.49  0.00101 
# ℹ 7,448 more rows
```
…
