Economic Data - Lecture 8
…
count: false

.panel1-chunk_11-auto[

``` r
# Loading data for China 1980 and 2014
*read_excel("../data/GCIPrawdata.xlsx", skip = 2)
```
]
 
.panel2-chunk_11-auto[

```
# A tibble: 4,799 × 14
   Country      Year `Decile 1 Income` `Decile 2 Income` `Decile 3 Income`
   <chr>       <dbl>             <dbl>             <dbl>             <dbl>
 1 Afghanistan  1980               206               350               455
 2 Afghanistan  1981               212               361               469
 3 Afghanistan  1982               221               377               490
 4 Afghanistan  1983               238               405               527
 5 Afghanistan  1984               249               424               551
 6 Afghanistan  1985               256               435               566
 7 Afghanistan  1986               268               457               594
 8 Afghanistan  1987               243               414               539
 9 Afghanistan  1988               223               380               493
10 Afghanistan  1989               202               344               447
# ℹ 4,789 more rows
# ℹ 9 more variables: `Decile 4 Income` <dbl>, `Decile 5 Income` <dbl>,
#   `Decile 6 Income` <dbl>, `Decile 7 Income` <dbl>, `Decile 8 Income` <dbl>,
#   `Decile 9 Income` <dbl>, `Decile 10 Income` <dbl>, `Mean Income` <dbl>,
#   Population <dbl>
```
…
---
count: false

.panel1-chunk_51-auto[

``` r
*read_csv("../data/API_SI.POV.GINI_DS2_en_csv_v2_5994673.csv", skip = 4)
```
]
 
.panel2-chunk_51-auto[

```
# A tibble: 266 × 68
   `Country Name` `Country Code` `Indicator Name` `Indicator Code` `1960` `1961`
   <chr>          <chr>          <chr>            <chr>            <lgl>  <lgl> 
 1 Aruba          ABW            Gini index       SI.POV.GINI      NA     NA    
 2 Africa Easter… AFE            Gini index       SI.POV.GINI      NA     NA    
 3 Afghanistan    AFG            Gini index       SI.POV.GINI      NA     NA    
 4 Africa Wester… AFW            Gini index       SI.POV.GINI      NA     NA    
 5 Angola         AGO            Gini index       SI.POV.GINI      NA     NA    
 6 Albania        ALB            Gini index       SI.POV.GINI      NA     NA    
 7 Andorra        AND            Gini index       SI.POV.GINI      NA     NA    
 8 Arab World     ARB            Gini index       SI.POV.GINI      NA     NA    
 9 United Arab E… ARE            Gini index       SI.POV.GINI      NA     NA    
10 Argentina      ARG            Gini index       SI.POV.GINI      NA     NA    
# ℹ 256 more rows
# ℹ 62 more variables: `1962` <lgl>, `1963` <dbl>, `1964` <dbl>, `1965` <dbl>,
#   `1966` <dbl>, `1967` <dbl>, `1968` <dbl>, `1969` <dbl>, `1970` <dbl>,
#   `1971` <dbl>, `1972` <dbl>, `1973` <dbl>, `1974` <dbl>, `1975` <dbl>,
#   `1976` <dbl>, `1977` <dbl>, `1978` <dbl>, `1979` <dbl>, `1980` <dbl>,
#   `1981` <dbl>, `1982` <dbl>, `1983` <dbl>, `1984` <dbl>, `1985` <dbl>,
#   `1986` <dbl>, `1987` <dbl>, `1988` <dbl>, `1989` <dbl>, `1990` <dbl>, …
```
…
---
count: false

.panel1-chunk_51-auto[

``` r
read_csv("../data/API_SI.POV.GINI_DS2_en_csv_v2_5994673.csv", skip = 4) %>%
* select("Country Name", "2019")
```
]
 
.panel2-chunk_51-auto[

```
# A tibble: 266 × 2
   `Country Name`              `2019`
   <chr>                        <dbl>
 1 Aruba                         NA  
 2 Africa Eastern and Southern   NA  
 3 Afghanistan                   NA  
 4 Africa Western and Central    NA  
 5 Angola                        NA  
 6 Albania                       30.1
 7 Andorra                       NA  
 8 Arab World                    NA  
 9 United Arab Emirates          NA  
10 Argentina                     42.9
# ℹ 256 more rows
```
…
.panel1-chunk_51-auto[

``` r
read_csv("../data/API_SI.POV.GINI_DS2_en_csv_v2_5994673.csv", skip = 4) %>%
  select("Country Name", "2019") %>%
* rename(country = "Country Name",
*        gini = "2019")
```
]
 
.panel2-chunk_51-auto[

```
# A tibble: 266 × 2
   country                      gini
   <chr>                       <dbl>
 1 Aruba                        NA  
 2 Africa Eastern and Southern  NA  
 3 Afghanistan                  NA  
 4 Africa Western and Central   NA  
 5 Angola                       NA  
 6 Albania                      30.1
 7 Andorra                      NA  
 8 Arab World                   NA  
 9 United Arab Emirates         NA  
10 Argentina                    42.9
# ℹ 256 more rows
```
…
``` r
read_csv("../data/API_SI.POV.GINI_DS2_en_csv_v2_5994673.csv", skip = 4) %>%
  select("Country Name", "2019") %>%
  rename(country = "Country Name",
         gini = "2019") %>%
* filter(!is.na(gini),
*        gini>0)
```
]
 
.panel2-chunk_51-auto[

```
# A tibble: 71 × 2
   country    gini
   <chr>     <dbl>
 1 Albania    30.1
 2 Argentina  42.9
 3 Armenia    30  
 4 Austria    30.2
 5 Belgium    27.2
 6 Bulgaria   40.3
 7 Belarus    25.3
 8 Bolivia    41.6
 9 Brazil     53.5
10 Canada     31.7
# ℹ 61 more rows
```
…
``` r
read_csv("../data/API_SI.POV.GINI_DS2_en_csv_v2_5994673.csv", skip = 4) %>%
  select("Country Name", "2019") %>%
  rename(country = "Country Name",
         gini = "2019") %>%
  filter(!is.na(gini),
         gini>0) %>%
* mutate(country = fct_reorder(country, gini))
```
]
 
.panel2-chunk_51-auto[

```
# A tibble: 71 × 2
   country    gini
   <fct>     <dbl>
 1 Albania    30.1
 2 Argentina  42.9
 3 Armenia    30  
 4 Austria    30.2
 5 Belgium    27.2
 6 Bulgaria   40.3
 7 Belarus    25.3
 8 Bolivia    41.6
 9 Brazil     53.5
10 Canada     31.7
# ℹ 61 more rows
```
…
``` r
read_csv("../data/API_SI.POV.GINI_DS2_en_csv_v2_5994673.csv", skip = 4) %>%
  select("Country Name", "2019") %>%
  rename(country = "Country Name",
         gini = "2019") %>%
  filter(!is.na(gini),
         gini>0) %>%
  mutate(country = fct_reorder(country, gini))
```
]
 
.panel2-chunk_51-auto[

```
# A tibble: 71 × 2
   country    gini
   <fct>     <dbl>
 1 Albania    30.1
 2 Argentina  42.9
 3 Armenia    30  
 4 Austria    30.2
 5 Belgium    27.2
 6 Bulgaria   40.3
 7 Belarus    25.3
 8 Bolivia    41.6
 9 Brazil     53.5
10 Canada     31.7
# ℹ 61 more rows
```
…
