Economic Data - Lecture 6
…
```r
# Loading packages
library(tidyverse)
library(readxl)

# Loading and cleaning the data
*read_csv("../data/Figure_1__Annual_CPIH_and_CPI_inflation_rates_eased_slightly_in_August_2023.csv", skip =6)
```
]
 
.panel2-chunk_1-auto[

```
# A tibble: 121 x 4
   X1        CPIH   CPI   OOH
   <chr>    <dbl> <dbl> <dbl>
 1 Aug 2013   2.4   2.7   1.4
 2 Sep 2013   2.4   2.7   1.2
 3 Oct 2013   2     2.2   1.3
 4 Nov 2013   1.9   2.1   1.4
 5 Dec 2013   1.9   2     1.3
 6 Jan 2014   1.8   1.9   1.3
 7 Feb 2014   1.6   1.7   1.3
 8 Mar 2014   1.5   1.6   1.2
 9 Apr 2014   1.7   1.8   1.3
10 May 2014   1.5   1.5   1.3
# … with 111 more rows
```
…
```r
# Loading packages
library(tidyverse)
library(readxl)

# Loading and cleaning the data
read_csv("../data/Figure_1__Annual_CPIH_and_CPI_inflation_rates_eased_slightly_in_August_2023.csv", skip =6) %>%
* rename(date    = X1)
```
]
 
.panel2-chunk_1-auto[

```
# A tibble: 121 x 4
   date      CPIH   CPI   OOH
   <chr>    <dbl> <dbl> <dbl>
 1 Aug 2013   2.4   2.7   1.4
 2 Sep 2013   2.4   2.7   1.2
 3 Oct 2013   2     2.2   1.3
 4 Nov 2013   1.9   2.1   1.4
 5 Dec 2013   1.9   2     1.3
 6 Jan 2014   1.8   1.9   1.3
 7 Feb 2014   1.6   1.7   1.3
 8 Mar 2014   1.5   1.6   1.2
 9 Apr 2014   1.7   1.8   1.3
10 May 2014   1.5   1.5   1.3
# … with 111 more rows
```
…
# Loading and cleaning the data
read_csv("../data/Figure_1__Annual_CPIH_and_CPI_inflation_rates_eased_slightly_in_August_2023.csv", skip =6) %>%
  rename(date    = X1) %>%
* mutate(date = paste(date, "01", sep=" "),
*        date = as.Date(date, format = "%b %Y %d"))
```
]
 
.panel2-chunk_1-auto[

```
# A tibble: 121 x 4
   date        CPIH   CPI   OOH
   <date>     <dbl> <dbl> <dbl>
 1 2013-08-01   2.4   2.7   1.4
 2 2013-09-01   2.4   2.7   1.2
 3 2013-10-01   2     2.2   1.3
 4 2013-11-01   1.9   2.1   1.4
 5 2013-12-01   1.9   2     1.3
 6 2014-01-01   1.8   1.9   1.3
 7 2014-02-01   1.6   1.7   1.3
 8 2014-03-01   1.5   1.6   1.2
 9 2014-04-01   1.7   1.8   1.3
10 2014-05-01   1.5   1.5   1.3
# … with 111 more rows
```
…
# Loading and cleaning the data
read_csv("../data/Figure_1__Annual_CPIH_and_CPI_inflation_rates_eased_slightly_in_August_2023.csv", skip =6) %>%
  rename(date    = X1) %>%
  mutate(date = paste(date, "01", sep=" "),
         date = as.Date(date, format = "%b %Y %d")) %>%
* gather(series, p, 2:4, -date)
```
]
 
.panel2-chunk_1-auto[

```
# A tibble: 363 x 3
   date       series     p
   <date>     <chr>  <dbl>
 1 2013-08-01 CPIH     2.4
 2 2013-09-01 CPIH     2.4
 3 2013-10-01 CPIH     2  
 4 2013-11-01 CPIH     1.9
 5 2013-12-01 CPIH     1.9
 6 2014-01-01 CPIH     1.8
 7 2014-02-01 CPIH     1.6
 8 2014-03-01 CPIH     1.5
 9 2014-04-01 CPIH     1.7
10 2014-05-01 CPIH     1.5
# … with 353 more rows
```
…
```r
# Loading packages
library(tidyverse)
library(readxl)

# Loading and cleaning the data
*read_csv("../data/prc_hicp_midx__custom_8291826_linear.csv")
```
]
 
.panel2-chunk_3-auto[

```
# A tibble: 14,988 x 9
   DATAFLOW `LAST UPDATE` freq  unit  coicop geo   TIME_PERIOD OBS_VALUE
   <chr>    <chr>         <chr> <chr> <chr>  <chr> <chr>           <dbl>
 1 ESTAT:P… 31/10/23 11:… M     I15   CP00   AL    2015-12          100 
 2 ESTAT:P… 31/10/23 11:… M     I15   CP00   AL    2016-01          101 
 3 ESTAT:P… 31/10/23 11:… M     I15   CP00   AL    2016-02          102.
 4 ESTAT:P… 31/10/23 11:… M     I15   CP00   AL    2016-03          103.
 5 ESTAT:P… 31/10/23 11:… M     I15   CP00   AL    2016-04          102.
 6 ESTAT:P… 31/10/23 11:… M     I15   CP00   AL    2016-05          101.
 7 ESTAT:P… 31/10/23 11:… M     I15   CP00   AL    2016-06          100.
 8 ESTAT:P… 31/10/23 11:… M     I15   CP00   AL    2016-07          100.
 9 ESTAT:P… 31/10/23 11:… M     I15   CP00   AL    2016-08          101.
10 ESTAT:P… 31/10/23 11:… M     I15   CP00   AL    2016-09          102.
# … with 14,978 more rows, and 1 more variable: OBS_FLAG <chr>
```
…
```r
# Loading packages
library(tidyverse)
library(readxl)

# Loading and cleaning the data
read_csv("../data/prc_hicp_midx__custom_8291826_linear.csv") %>%
* select(geo, TIME_PERIOD, OBS_VALUE, coicop)
```
]
 
.panel2-chunk_3-auto[

```
# A tibble: 14,988 x 4
   geo   TIME_PERIOD OBS_VALUE coicop
   <chr> <chr>           <dbl> <chr> 
 1 AL    2015-12          100  CP00  
 2 AL    2016-01          101  CP00  
 3 AL    2016-02          102. CP00  
 4 AL    2016-03          103. CP00  
 5 AL    2016-04          102. CP00  
 6 AL    2016-05          101. CP00  
 7 AL    2016-06          100. CP00  
 8 AL    2016-07          100. CP00  
 9 AL    2016-08          101. CP00  
10 AL    2016-09          102. CP00  
# … with 14,978 more rows
```
…
# Loading and cleaning the data
read_csv("../data/prc_hicp_midx__custom_8291826_linear.csv") %>%
  select(geo, TIME_PERIOD, OBS_VALUE, coicop) %>%
* rename(country = geo)
```
]
 
.panel2-chunk_3-auto[

```
# A tibble: 14,988 x 4
   country TIME_PERIOD OBS_VALUE coicop
   <chr>   <chr>           <dbl> <chr> 
 1 AL      2015-12          100  CP00  
 2 AL      2016-01          101  CP00  
 3 AL      2016-02          102. CP00  
 4 AL      2016-03          103. CP00  
 5 AL      2016-04          102. CP00  
 6 AL      2016-05          101. CP00  
 7 AL      2016-06          100. CP00  
 8 AL      2016-07          100. CP00  
 9 AL      2016-08          101. CP00  
10 AL      2016-09          102. CP00  
# … with 14,978 more rows
```
…
# Loading and cleaning the data
read_csv("../data/prc_hicp_midx__custom_8291826_linear.csv") %>%
  select(geo, TIME_PERIOD, OBS_VALUE, coicop) %>%
  rename(country = geo) %>%
* rename(date    = TIME_PERIOD)
```
]
 
.panel2-chunk_3-auto[

```
# A tibble: 14,988 x 4
   country date    OBS_VALUE coicop
   <chr>   <chr>       <dbl> <chr> 
 1 AL      2015-12      100  CP00  
 2 AL      2016-01      101  CP00  
 3 AL      2016-02      102. CP00  
 4 AL      2016-03      103. CP00  
 5 AL      2016-04      102. CP00  
 6 AL      2016-05      101. CP00  
 7 AL      2016-06      100. CP00  
 8 AL      2016-07      100. CP00  
 9 AL      2016-08      101. CP00  
10 AL      2016-09      102. CP00  
# … with 14,978 more rows
```
…
# Loading and cleaning the data
read_csv("../data/prc_hicp_midx__custom_8291826_linear.csv") %>%
  select(geo, TIME_PERIOD, OBS_VALUE, coicop) %>%
  rename(country = geo) %>%
  rename(date    = TIME_PERIOD) %>%
* rename(p       = OBS_VALUE)
```
]
 
.panel2-chunk_3-auto[

```
# A tibble: 14,988 x 4
   country date        p coicop
   <chr>   <chr>   <dbl> <chr> 
 1 AL      2015-12  100  CP00  
 2 AL      2016-01  101  CP00  
 3 AL      2016-02  102. CP00  
 4 AL      2016-03  103. CP00  
 5 AL      2016-04  102. CP00  
 6 AL      2016-05  101. CP00  
 7 AL      2016-06  100. CP00  
 8 AL      2016-07  100. CP00  
 9 AL      2016-08  101. CP00  
10 AL      2016-09  102. CP00  
# … with 14,978 more rows
```
…
# Loading and cleaning the data
read_csv("../data/prc_hicp_midx__custom_8291826_linear.csv") %>%
  select(geo, TIME_PERIOD, OBS_VALUE, coicop) %>%
  rename(country = geo) %>%
  rename(date    = TIME_PERIOD) %>%
  rename(p       = OBS_VALUE) %>%
* rename(series  = coicop)
```
]
 
.panel2-chunk_3-auto[

```
# A tibble: 14,988 x 4
   country date        p series
   <chr>   <chr>   <dbl> <chr> 
 1 AL      2015-12  100  CP00  
 2 AL      2016-01  101  CP00  
 3 AL      2016-02  102. CP00  
 4 AL      2016-03  103. CP00  
 5 AL      2016-04  102. CP00  
 6 AL      2016-05  101. CP00  
 7 AL      2016-06  100. CP00  
 8 AL      2016-07  100. CP00  
 9 AL      2016-08  101. CP00  
10 AL      2016-09  102. CP00  
# … with 14,978 more rows
```
…
.panel2-chunk_3-auto[

```
# A tibble: 14,988 x 4
   country date           p series
   <chr>   <date>     <dbl> <chr> 
 1 AL      2015-12-01  100  CP00  
 2 AL      2016-01-01  101  CP00  
 3 AL      2016-02-01  102. CP00  
 4 AL      2016-03-01  103. CP00  
 5 AL      2016-04-01  102. CP00  
 6 AL      2016-05-01  101. CP00  
 7 AL      2016-06-01  100. CP00  
 8 AL      2016-07-01  100. CP00  
 9 AL      2016-08-01  101. CP00  
10 AL      2016-09-01  102. CP00  
# … with 14,978 more rows
```
…
.panel2-chunk_3-auto[

```
# A tibble: 424 x 4
   country date           p series
   <chr>   <date>     <dbl> <chr> 
 1 FR      2015-01-01  98.7 CP00  
 2 FR      2015-02-01  99.4 CP00  
 3 FR      2015-03-01 100.  CP00  
 4 FR      2015-04-01 100.  CP00  
 5 FR      2015-05-01 101.  CP00  
 6 FR      2015-06-01 100.  CP00  
 7 FR      2015-07-01 100   CP00  
 8 FR      2015-08-01 100.  CP00  
 9 FR      2015-09-01 100.0 CP00  
10 FR      2015-10-01 100.  CP00  
# … with 414 more rows
```
…
.panel2-chunk_3-auto[

```
# A tibble: 424 x 4
# Groups:   series [4]
   country date           p series
   <chr>   <date>     <dbl> <chr> 
 1 FR      2015-01-01  98.7 CP00  
 2 FR      2015-02-01  99.4 CP00  
 3 FR      2015-03-01 100.  CP00  
 4 FR      2015-04-01 100.  CP00  
 5 FR      2015-05-01 101.  CP00  
 6 FR      2015-06-01 100.  CP00  
 7 FR      2015-07-01 100   CP00  
 8 FR      2015-08-01 100.  CP00  
 9 FR      2015-09-01 100.0 CP00  
10 FR      2015-10-01 100.  CP00  
# … with 414 more rows
```
…
.panel2-chunk_3-auto[

```
# A tibble: 424 x 5
# Groups:   series [4]
   country date           p series   g_p
   <chr>   <date>     <dbl> <chr>  <dbl>
 1 FR      2015-01-01  98.7 CP00      NA
 2 FR      2015-02-01  99.4 CP00      NA
 3 FR      2015-03-01 100.  CP00      NA
 4 FR      2015-04-01 100.  CP00      NA
 5 FR      2015-05-01 101.  CP00      NA
 6 FR      2015-06-01 100.  CP00      NA
 7 FR      2015-07-01 100   CP00      NA
 8 FR      2015-08-01 100.  CP00      NA
 9 FR      2015-09-01 100.0 CP00      NA
10 FR      2015-10-01 100.  CP00      NA
# … with 414 more rows
```
…
.panel2-chunk_3-auto[

```
# A tibble: 276 x 5
# Groups:   series [4]
   country date           p series   g_p
   <chr>   <date>     <dbl> <chr>  <dbl>
 1 FR      2018-02-01  102. CP00     1.3
 2 FR      2018-03-01  103. CP00     1.7
 3 FR      2018-04-01  103. CP00     1.8
 4 FR      2018-05-01  104. CP00     2.3
 5 FR      2018-06-01  104. CP00     2.3
 6 FR      2018-07-01  104. CP00     2.6
 7 FR      2018-08-01  104. CP00     2.6
 8 FR      2018-09-01  104. CP00     2.5
 9 FR      2018-10-01  104. CP00     2.5
10 FR      2018-11-01  104  CP00     2.2
# … with 266 more rows
```
…
